echo -e "-1-\n-2-\n-3-\n-4-\n-5-\n-6-\n" > all.txt



split -l 1 all.txt

tar -cvf test.tar ./T

cd /tmp && mkdir /tmp/TT && cd /tmp/TT 
man wc > ./wc.man.txt
csplit -f 4tar ./wc.man.txt  '/^[A-Z][A-Z]/' '{*}'

tar -cvf ./wc.man.tar  ./4tar*
tar -cvjf ./wc.man.tar.bz2  ./4tar*

man.tar

less sed dd column.1.gz mv wc pwd
